Total time = 1.360813 seconds
Total time = 1.361641 seconds
Total time = 1.296142 seconds
Total time = 0.909862 seconds
Total time = 1.311613 seconds
Total time = 1.361332 seconds
Total time = 1.361905 seconds
Total time = 1.360423 seconds
Total time = 1.360996 seconds
Total time = 1.362012 seconds
sd = 0.1408102
mean = 1.304674
