Total time = 0.548437 seconds
Total time = 0.512964 seconds
Total time = 0.553223 seconds
Total time = 0.540782 seconds
Total time = 0.554732 seconds
Total time = 0.580162 seconds
Total time = 0.520171 seconds
Total time = 0.564527 seconds
Total time = 0.557112 seconds
Total time = 0.560287 seconds
sd = 0.02014677
mean = 0.5492397
